
state={
	id=275
	name="STATE_275"
	resources={
		steel=5.000
		chromium=53.000
	}

	history={
		owner = LKW
		buildings = {
			infrastructure = 5
			arms_factory = 1
			industrial_complex = 5
			air_base = 3

		}
		victory_points = {
			10400 10 
		}
		add_core_of = LKW

	}

	provinces={
		1688 2171 2213 5106 5217 5231 10400 10566 12064 12648 
	}
	manpower=3680363
	buildings_max_level_factor=1.000
	state_category=city
}
