
state={
	id=490
	name="STATE_490"
	manpower = 70020
	
	state_category = pastoral

	history={
		owner = HQS
		buildings = {
			infrastructure = 3
			industrial_complex = 1
			air_base = 1
		}
		add_core_of = HQS
	}

	provinces={
		8149 10942 
	}
}
