state={
	id=492
	name="STATE_492"
	resources={
		tungsten=2 # was: 2.000
	}
	
	state_category = rural

	history={
		owner = HQS
		buildings = {
			infrastructure = 3
			industrial_complex = 1
			air_base = 1

		}
		add_core_of = HQS
		victory_points = {
			2210 1 
		}

	}

	provinces={
		2182 2210 2225 5202 12953 13086 13175 
	}
	manpower=1601278
	buildings_max_level_factor=1.000
}
