
state={
	id=579
	name="STATE_579" # Salekhard
	manpower = 45484
	
	state_category = wasteland

	history={
		owner = SIB
		buildings = {
			infrastructure = 1
		}
		add_core_of = SIB
	}

	provinces={
		1664 1684 3169 4669 7689 7738 8461 9142 
	}
}
