
state={
	id=582
	name="STATE_582"
	resources={
		steel=40.000
		oil=6.000
	}

	history={
		owner = SIB
		buildings = {
			infrastructure = 5

		}
		add_core_of = SIB
		victory_points = {
			10256 3 
		}

	}

	provinces={
		1334 4215 4411 7281 7328 7401 10196 10224 10256 
	}
	manpower=1044991
	buildings_max_level_factor=1.000
	state_category=rural
}
