
state={
	id=613
	name="STATE_613"

	history={
		owner = CHI
		add_core_of = CHI
		add_core_of = PRC
		buildings = {
			infrastructure = 5
			industrial_complex = 1
			air_base = 6
			dockyard = 1
			7014 = {
				naval_base = 6
				coastal_bunker = 1
				bunker = 1

			}

		}
		victory_points = {
			11913 20 
		}
		victory_points = {
			7014 5 
		}
		victory_points = {
			10076 3 
		}
		1938.10.25 = {
			controller = JAP

		}

	}

	provinces={
		7014 7120 10034 10076 12052 12076 13142 
	}
	manpower=17305100
	buildings_max_level_factor=1.000
	state_category=large_city
}
