state= {
	id=623
	name="STATE_623"
	manpower = 2010656
	
	state_category = city
	
	resources={
		rubber=1 # was: 2
	}

	history= {
		owner = TAI
		buildings = {
			infrastructure = 4
			industrial_complex = 1
			12213 = {
				naval_base = 1
			}
			1415 = {
				naval_base = 1
			}
		}
		
		victory_points = {
			1415 1 
		}
		victory_points = {
			12213 1 
		}
		add_core_of = CHI
	}
	provinces={
		4101 4214 4233 4350 4368 7325 7439 10167 10241 10252 10298 12213 10280 1415 12253 4423 1388 
	}
}
