state=
{
	id=626
	name="STATE_626"
	manpower = 83041
	
	state_category = rural
	
	history=
	{
		owner = DNM
		buildings = {
			infrastructure = 3
			4429 = {
				naval_base = 1
			}
		}
		add_core_of = DNM
	}
	provinces={
		4429 7419 10145 
	}
}
