state={
	id=730
	name="STATE_730"
	manpower=3426
	state_category = tiny_island

	history={
		owner = INS
		buildings = {
			infrastructure = 3
			373 = {
				naval_base = 1
			}
		}
	}
	
	provinces={ 373 }
}
