state={
	id=734
	name="STATE_734"
	manpower = 5167
	state_category = tiny_island

	history={
		owner = INS
		buildings = {
			infrastructure = 3
			7390 = {
				naval_base = 1
			}
		}
	}

	buildings_max_level_factor=1.000

	provinces={
		7390 
	}
}
