
state={
	id=768
	name="STATE_768"

	history={
		owner = TAN
		add_core_of = TAN
		victory_points = {
			9962 1 
		}
		buildings = {
			infrastructure = 2

		}

	}

	provinces={
		3854 4171 9962 
	}
	manpower=1716564
	buildings_max_level_factor=1.000
	state_category=pastoral
}
