state={
	id=807
	name="STATE_807"
	history={
		owner = CHI
		add_core_of = CHI
	}	
	provinces={
		1448 1628 1640 4156 4183 7004 7097 7653 9942 9982 9999 10057 10114 10501 11988 12350 12495 13143 
	}
	manpower=0
	buildings_max_level_factor=1.000
}
